{
    "id": "2_cert_failure",
    "name": "Image service cert expires, Author service unable to connect to ratings.",
    "description": "The ratings service is unaccessible because cert expired.",
    "steps": [
        {
            "service": "author",
            "name": "Rating endpoint GET /images/:id failing with 500 errors all the time.",
            "type": "setCallDistributionOverride",
            "endpoint": "GET /images/:id",
            "options": [
                {
                    "code": 500,
                    "weight": 1,
                    "payload": "CERT_HAS_EXPIRED",
                    "template": "CERT_HAS_EXPIRED. Reporting: 'notAfter=Nov 8 01:37:01 2021 GMT'. Unable to connect to image service."
                }
            ]
        },
        {
            "service": "author",
            "type": "latency",
            "name": "Increase latency in primary GET /image/:id to 0.9 seconds",
            "endpoint": "GET /images/:id",
            "value": {
                "mean": 900,
                "stdev": 200,
                "min": 200,
                "max": 11000
            }
        },
        {
            "service": "image",
            "name": "Increase memory usage",
            "type": "memory",
            "value": 8
        },
        {
            "service": "image",
            "name": "Increase cpu usage",
            "type": "cpu",
            "value": 8
        }
    ]
}
    

